%YAML 1.1
%TAG !u! tag:unity3d.com,2011:
--- !u!78 &1
TagManager:
  serializedVersion: 2
  tags: []
  layers:
  - Default
  - TransparentFX
  - Ignore Raycast
  - Mouse Raycast
  - Water
  - UI
  - Ships
  - Floating Treasure
  - Fish
  - Islands
  - Catch Devices
  - InnerFish
  - Zones
  - 
  - 
  - 
  - 
  - 
  - 
  - 
  - 
  - 
  - 
  - 
  - 
  - 
  - 
  - 
  - 
  - 
  - 
  - 
  m_SortingLayers:
  - name: Default
    uniqueID: 0
    locked: 0
  - name: Background
    uniqueID: 254206315
    locked: 0
  - name: Fish
    uniqueID: 3880891957
    locked: 0
  - name: Hook Bottom
    uniqueID: 2449781991
    locked: 0
  - name: Grid
    uniqueID: 458299397
    locked: 0
  - name: Islands
    uniqueID: 2811771591
    locked: 0
  - name: Ships
    uniqueID: 237229827
    locked: 0
  - name: Hook Top
    uniqueID: 2200544145
    locked: 0
  - name: ShipSails
    uniqueID: 412717855
    locked: 0
  - name: Wind
    uniqueID: 3409160551
    locked: 0
  - name: Map Borders
    uniqueID: 3923483605
    locked: 0
  - name: Fog
    uniqueID: 1909589903
    locked: 0
  - name: UI
    uniqueID: 2816484379
    locked: 0
